name="Dynamic Faith Conversion"
tags={
	"Events,Historical,Fixes,Gameplay"
}
picture="thumbnail.png"
supported_version="1.36.*.*"
path="C:/Users/13146/Documents/Paradox Interactive/Europa Universalis IV/mod/dynamic-faith-conversion"